{
  "status": true,
  "result": [
    {
      "id": "12",
      "name": "Aman R Gupta",
      "text": "Aman R Gupta",
      "user": [

        {
          "id": "45",
          "name": "Harish Yadav",
          "text": "Harish Yadav",
          "user": [
            {
              "id": "133",
              "name": "Mahendra Rajbhar ",
              "text": "Mahendra Rajbhar ",
              "user": [
                {
                  "id": "134",
                  "name": "Sunil Kumar",
                  "text": "Sunil Kumar",
                  "user": [
                  ],
                  "count": 0
                }
              ],
              "count": 1
            }
          ],
          "count": 4
        }
      ],
      "count": 8
    },
    {
      "id": "1003",
      "name": "Ramkumar Yadav",
      "text": "Ramkumar Yadav",
      "user": [

      ],
      "count": 0
    }
  ]
}